Numero de turno,# de agentes Tranquilos,# de agentes Rebelandose,#numero agentes en la carcel
1,10,0,0
Numero de turno,# de agentes Tranquilos,# de agentes Rebelandose,#numero agentes en la carcel
2,10,58,6
Numero de turno,# de agentes Tranquilos,# de agentes Rebelandose,#numero agentes en la carcel
3,10,52,12
