Numero de turno,# de agentes Tranquilos,# de agentes Rebelandose,#numero agentes en la carcel
1,10,65,0
Numero de turno,# de agentes Tranquilos,# de agentes Rebelandose,#numero agentes en la carcel
2,10,52,13
Numero de turno,# de agentes Tranquilos,# de agentes Rebelandose,#numero agentes en la carcel
3,10,44,21
