Numero de turno,# de agentes Tranquilos,# de agentes Rebelandose,#numero agentes en la carcel
1,7,63,0
Numero de turno,# de agentes Tranquilos,# de agentes Rebelandose,#numero agentes en la carcel
2,7,27,8
Numero de turno,# de agentes Tranquilos,# de agentes Rebelandose,#numero agentes en la carcel
3,7,-90,17
