Numero de turno,# de agentes Tranquilos,# de agentes Rebelandose,#numero agentes en la carcel
1,11,64,0
Numero de turno,# de agentes Tranquilos,# de agentes Rebelandose,#numero agentes en la carcel
2,11,57,7
Numero de turno,# de agentes Tranquilos,# de agentes Rebelandose,#numero agentes en la carcel
3,11,44,13
