Numero de turno,# de agentes Tranquilos,# de agentes Rebelandose,#numero agentes en la carcel
1,7,53,0
Numero de turno,# de agentes Tranquilos,# de agentes Rebelandose,#numero agentes en la carcel
2,7,40,13
Numero de turno,# de agentes Tranquilos,# de agentes Rebelandose,#numero agentes en la carcel
3,7,32,21
