Numero de turno,# de agentes Tranquilos,# de agentes Rebelandose,#numero agentes en la carcel
1,9,71,0
Numero de turno,# de agentes Tranquilos,# de agentes Rebelandose,#numero agentes en la carcel
2,9,60,11
Numero de turno,# de agentes Tranquilos,# de agentes Rebelandose,#numero agentes en la carcel
3,9,53,18
Numero de turno,# de agentes Tranquilos,# de agentes Rebelandose,#numero agentes en la carcel
4,9,45,26
Numero de turno,# de agentes Tranquilos,# de agentes Rebelandose,#numero agentes en la carcel
5,9,41,30
Numero de turno,# de agentes Tranquilos,# de agentes Rebelandose,#numero agentes en la carcel
6,9,38,33
Numero de turno,# de agentes Tranquilos,# de agentes Rebelandose,#numero agentes en la carcel
7,9,33,38
Numero de turno,# de agentes Tranquilos,# de agentes Rebelandose,#numero agentes en la carcel
8,9,29,42
